468625.0 -0.01 0.01 0.02
468639.0 0.0 0.01 0.0
468654.0 -0.01 0.01 0.01
468668.0 0.0 0.0 0.02
468683.0 -0.0 0.01 0.02
468697.0 -0.01 0.01 0.02
468712.0 0.0 0.0 0.02
468726.0 0.0 0.01 0.01
468741.0 -0.0 0.0 0.01
468755.0 -0.01 0.01 0.01
468770.0 -0.0 -0.0 0.01
468785.0 -0.01 0.0 0.02
468799.0 0.0 0.01 -0.01
468814.0 -0.0 -0.0 0.0
468828.0 -0.0 0.0 0.0
468843.0 -0.01 0.01 0.02
468859.0 -0.01 0.01 0.0
468874.0 -0.0 0.01 0.01
468889.0 -0.0 0.01 0.01
468904.0 0.0 0.01 0.0
468919.0 -0.01 0.0 0.02
468934.0 -0.01 0.0 0.01
468949.0 0.01 0.0 0.0
468964.0 0.0 0.0 0.01
468979.0 -0.0 0.01 0.01
468994.0 0.01 0.0 0.0
469009.0 -0.0 0.0 0.01
469023.0 -0.01 0.0 -0.0
469039.0 0.01 0.01 0.01
469054.0 -0.01 0.01 -0.0
469069.0 -0.0 0.0 -0.0
469084.0 -0.0 0.0 0.01
469099.0 -0.0 0.01 0.01
469114.0 -0.01 0.01 -0.0
469129.0 -0.01 0.0 0.01
469144.0 0.0 0.01 0.01
469159.0 -0.01 0.01 0.02
469174.0 0.0 0.01 0.0
469189.0 -0.0 0.01 0.01
469204.0 -0.01 0.01 0.01
469219.0 -0.0 0.02 0.0
469234.0 -0.0 0.01 0.0
469248.0 0.0 0.0 0.01
469263.0 -0.01 0.0 0.02
469279.0 -0.01 0.0 0.01
469356.0 0.0 0.01 -0.0
469370.0 0.01 -0.0 -0.0
469384.0 0.0 0.01 0.01
469399.0 0.0 0.01 0.01
469413.0 -0.0 0.0 -0.0
469428.0 0.0 0.01 -0.01
469442.0 0.0 0.01 0.0
469457.0 0.0 0.01 0.02
469472.0 -0.01 0.01 0.03
469486.0 -0.0 0.01 0.01
469501.0 0.0 0.01 0.01
469515.0 -0.0 0.01 0.01
469530.0 -0.0 0.01 0.0
469544.0 -0.01 0.01 -0.0
469559.0 0.01 0.01 0.02
469573.0 0.0 0.01 -0.01
469588.0 -0.0 0.01 0.03
469602.0 -0.0 -0.01 0.02
469617.0 -0.0 0.0 0.02
469632.0 -0.01 0.0 0.0
469646.0 0.0 0.01 -0.0
469661.0 0.0 -0.0 0.01
469675.0 -0.02 0.01 0.01
469689.0 -0.0 0.0 0.03
469704.0 -0.01 0.02 0.01
469718.0 -0.0 0.0 -0.0
469733.0 0.0 0.01 0.0
469747.0 0.0 0.0 0.01
469762.0 -0.01 0.01 0.02
469776.0 -0.0 0.01 0.01
469791.0 -0.0 0.01 0.0
469806.0 -0.01 0.01 -0.0
469820.0 -0.0 0.0 0.0
469834.0 0.0 0.01 0.01
469849.0 -0.0 0.0 0.02
469864.0 0.0 0.0 -0.0
469879.0 -0.0 0.01 0.01
469894.0 -0.0 0.01 0.01
469909.0 0.0 0.0 0.01
469924.0 -0.01 0.01 0.02
469939.0 0.0 0.01 0.01
469954.0 -0.0 0.01 0.01
469969.0 -0.0 0.01 0.0
469983.0 -0.0 0.0 -0.01
469998.0 0.0 0.01 0.0
470013.0 0.0 0.02 0.01
470028.0 -0.0 0.01 0.02
470043.0 -0.01 0.0 0.0
470058.0 0.0 0.01 0.01
470073.0 0.01 0.0 0.01
470088.0 -0.01 0.01 0.01
470103.0 -0.01 0.01 0.0
470118.0 0.0 0.0 0.01
470133.0 -0.0 0.01 0.02
470148.0 -0.0 -0.0 0.02
470163.0 -0.01 0.0 0.01
470178.0 -0.01 0.0 -0.0
470192.0 -0.01 0.01 0.0
470207.0 0.0 0.0 0.01
470222.0 -0.0 0.0 0.01
470237.0 0.0 0.0 0.01
470252.0 0.01 0.01 0.02
470267.0 0.0 0.01 0.0
470281.0 -0.0 -0.0 0.02
470296.0 -0.0 -0.0 0.02
470311.0 -0.0 0.0 0.01
470326.0 -0.0 0.01 0.01
470341.0 -0.01 0.0 0.01
470356.0 -0.0 0.01 -0.0
470371.0 -0.0 0.01 -0.0
470386.0 -0.0 -0.0 -0.0
470401.0 -0.01 0.02 -0.01
470477.0 -0.01 0.0 0.0
470492.0 -0.02 0.01 0.01
470506.0 -0.01 -0.0 -0.0
470521.0 0.0 0.02 0.01
470535.0 0.01 0.0 -0.0
470549.0 -0.01 -0.01 0.0
470564.0 -0.01 0.01 0.0
470578.0 -0.0 0.0 -0.01
470593.0 -0.0 0.01 0.0
470607.0 -0.0 -0.0 0.02
470622.0 -0.0 0.01 -0.0
470636.0 -0.0 -0.0 0.02
470651.0 0.0 0.01 0.01
470665.0 -0.0 -0.0 0.02
470679.0 -0.0 0.01 0.01
470694.0 0.0 0.01 0.02
470708.0 0.0 0.02 -0.0
470723.0 -0.0 0.01 0.03
470738.0 -0.0 0.0 0.01
470752.0 -0.0 0.01 0.0
470767.0 0.0 0.01 0.0
470782.0 -0.01 0.0 0.02
470796.0 -0.0 0.0 0.0
470811.0 0.0 0.01 -0.01
470825.0 -0.0 0.01 0.02
470840.0 -0.0 0.01 0.02
470854.0 0.0 0.01 0.0
470869.0 0.0 -0.0 0.02
470884.0 -0.0 0.01 -0.01
470898.0 -0.0 -0.0 0.02
470913.0 -0.0 0.0 0.01
470927.0 -0.0 0.0 0.01
470942.0 -0.0 0.0 0.01
470956.0 0.0 0.01 0.02
470971.0 -0.0 -0.0 0.01
470985.0 -0.0 -0.01 0.01
471000.0 0.0 0.0 0.0
471015.0 -0.0 0.01 0.01
471030.0 -0.0 0.01 0.01
471045.0 -0.01 0.01 -0.01
471060.0 -0.0 -0.0 0.01
471075.0 -0.0 -0.0 0.02
471090.0 -0.0 0.01 0.02
471105.0 -0.01 0.01 0.01
471120.0 -0.0 -0.0 0.01
471135.0 0.01 -0.01 0.0
471150.0 -0.0 0.01 -0.01
471165.0 -0.01 0.01 0.01
471180.0 -0.0 0.01 0.02
471195.0 0.0 0.0 0.01
471210.0 0.0 0.01 -0.01
471225.0 -0.0 0.01 0.0
471240.0 -0.0 -0.0 0.01
471255.0 0.01 -0.0 0.02
471270.0 0.0 0.01 -0.0
471285.0 -0.0 0.0 -0.0
471300.0 -0.01 0.01 0.01
471315.0 -0.0 0.01 0.02
471330.0 0.01 0.0 0.0
471345.0 -0.0 0.01 0.0
471361.0 -0.01 0.0 0.02
471376.0 -0.01 0.01 0.01
471391.0 -0.0 0.01 0.03
471406.0 -0.01 0.0 -0.0
471421.0 0.01 0.01 0.01
471436.0 -0.0 0.0 0.01
471451.0 -0.01 0.0 0.02
471529.0 0.0 0.01 0.01
471543.0 0.0 0.01 0.01
471558.0 -0.01 0.0 0.01
471572.0 0.0 0.0 -0.02
471587.0 -0.0 0.0 0.01
471601.0 -0.01 0.01 -0.0
471616.0 -0.0 0.0 0.02
471630.0 0.0 -0.0 -0.01
471645.0 -0.0 0.01 0.01
471659.0 -0.0 0.01 0.02
471674.0 -0.01 0.0 0.01
471688.0 -0.01 -0.0 0.02
471703.0 0.0 0.01 0.01
471718.0 -0.0 0.0 -0.0
471732.0 -0.0 0.0 -0.01
471746.0 -0.0 0.01 0.01
471761.0 -0.0 0.0 0.01
471775.0 -0.0 -0.0 0.01
471790.0 -0.0 0.0 0.02
471804.0 0.0 0.0 0.01
471819.0 -0.0 0.01 0.01
471833.0 0.0 0.01 0.01
471848.0 -0.01 0.01 0.01
471862.0 0.0 0.01 -0.0
471877.0 -0.01 0.01 0.0
471891.0 -0.0 0.01 0.02
471906.0 -0.0 0.01 0.01
471920.0 0.01 0.01 0.01
471935.0 0.0 0.0 0.01
471950.0 -0.0 0.01 0.0
471964.0 -0.01 0.01 0.01
471979.0 -0.0 0.01 0.0
471993.0 0.0 -0.0 0.01
472008.0 -0.0 0.01 0.01
472022.0 -0.0 0.01 0.02
472037.0 0.01 0.0 -0.0
472052.0 -0.0 0.01 0.01
472067.0 -0.0 -0.0 0.01
472082.0 -0.0 0.01 0.01
472096.0 -0.0 0.0 0.02
472111.0 0.0 -0.0 0.01
472126.0 0.0 0.01 0.0
472141.0 -0.01 0.0 0.0
472156.0 -0.0 0.01 0.01
472171.0 -0.01 0.0 0.0
472186.0 -0.0 0.01 0.01
472201.0 0.01 0.02 -0.0
472216.0 -0.0 0.0 0.02
472231.0 -0.01 0.01 -0.0
472246.0 -0.0 0.0 -0.01
472261.0 0.0 0.01 0.01
472276.0 -0.0 0.01 0.01
472291.0 -0.0 0.0 0.0
472306.0 -0.0 -0.0 0.01
472321.0 -0.0 0.01 -0.01
472336.0 0.0 0.01 0.01
472351.0 -0.01 0.01 0.0
472366.0 -0.01 0.01 0.01
472381.0 -0.0 0.01 0.0
472396.0 -0.0 0.0 0.02
472411.0 -0.01 0.01 0.01
472426.0 0.01 0.0 0.0
472441.0 -0.0 -0.0 -0.0
472456.0 0.0 0.02 0.01
472471.0 0.0 0.01 -0.0
472486.0 -0.01 0.01 0.01
472501.0 0.0 -0.0 0.02
472516.0 -0.0 0.01 2.71
472531.0 -0.0 0.01 -0.0
472546.0 -1.93 0.39 -0.52
472562.0 0.01 0.01 -0.0
472640.0 -0.0 0.01 -0.01
472654.0 0.0 0.01 0.0
472669.0 0.0 0.01 0.02
472683.0 -0.0 0.0 0.03
472697.0 0.0 0.01 0.01
472712.0 0.0 0.0 0.0
472727.0 -0.01 0.01 0.01
472741.0 -0.0 0.01 0.01
472756.0 -0.0 -0.0 0.0
472770.0 -0.01 0.01 0.02
472785.0 0.01 0.01 0.01
472800.0 -0.01 0.01 0.02
472815.0 0.0 0.01 0.02
472829.0 -0.0 0.0 0.01
472843.0 -0.0 0.01 0.0
472857.0 -0.01 -0.0 0.0
472871.0 -0.01 0.0 0.01
472886.0 -0.0 0.0 0.02
472900.0 0.0 0.01 -0.0
472915.0 -0.01 0.01 0.01
472929.0 -0.01 0.01 0.02
472944.0 0.0 -0.0 0.01
472958.0 -0.0 0.01 0.0
472973.0 -0.0 0.01 0.01
472987.0 -0.0 0.0 0.02
473001.0 -0.01 0.01 0.02
473016.0 -0.0 0.0 0.01
473030.0 -0.01 0.01 -0.0
473045.0 -0.0 0.0 0.03
473059.0 -0.01 0.01 0.0
473074.0 -0.01 -0.0 0.01
473088.0 -0.0 0.01 0.01
473103.0 -0.0 0.02 0.02
473117.0 0.0 0.0 0.01
473132.0 -0.01 0.01 0.0
473146.0 0.0 0.01 0.01
473161.0 -0.01 0.01 0.01
473176.0 -0.01 0.01 0.0
473191.0 -0.0 0.0 0.0
473206.0 -0.0 0.0 0.01
473221.0 0.0 0.01 0.01
473236.0 -0.01 0.01 0.01
473251.0 0.0 0.0 -0.01
473266.0 0.0 0.01 0.01
473281.0 -0.0 0.01 0.0
473296.0 -0.0 0.01 0.02
473311.0 -0.01 0.0 -0.0
473326.0 -0.0 0.0 0.01
473341.0 0.0 0.01 0.01
473356.0 0.0 -0.01 -0.0
473371.0 -0.01 0.0 -0.0
473385.0 -0.01 0.01 0.01
473400.0 -0.0 -0.0 0.0
473415.0 -0.01 0.01 0.0
473430.0 -0.0 0.01 0.01
473445.0 -0.02 0.0 -0.01
473460.0 0.0 0.0 0.0
473475.0 -0.0 0.01 0.0
473490.0 -0.01 0.01 0.01
473505.0 0.0 0.01 0.01
473520.0 0.0 0.01 -0.01
473535.0 -0.01 0.0 0.02
473550.0 -0.01 0.01 0.02
473565.0 -0.01 0.0 0.0
473580.0 -0.0 0.01 -0.01
473595.0 0.0 0.01 0.01
473610.0 -0.01 0.01 0.0
473625.0 -0.0 0.01 0.0
473640.0 -0.01 -0.0 0.01
473655.0 -0.0 0.01 0.01
473670.0 -0.0 -0.0 0.01
473685.0 0.01 0.0 -0.01
473700.0 -0.0 -0.0 0.01
473715.0 -0.0 0.01 -0.0
473730.0 -0.0 -0.0 0.0
473745.0 0.0 0.01 0.02
473760.0 0.0 0.0 0.01
473775.0 0.01 0.0 0.01
473851.0 -0.01 0.01 0.02
473866.0 0.01 0.01 -0.0
473880.0 -0.01 0.01 -0.02
473895.0 -0.0 0.02 0.01
473909.0 -0.01 0.01 0.02
473924.0 -0.01 0.01 0.01
473938.0 -0.0 0.0 0.0
473953.0 -0.0 0.01 0.01
473967.0 0.0 0.01 0.02
473982.0 -0.0 0.0 0.01
473996.0 0.01 -0.0 0.01
474011.0 -0.0 0.01 0.02
474025.0 -0.01 0.0 0.02
474040.0 0.01 0.01 0.01
474055.0 0.0 0.01 -0.0
474070.0 -0.01 0.0 -0.0
474084.0 0.0 0.01 0.0
474099.0 0.0 0.02 -0.01
474113.0 -0.01 0.01 0.01
474128.0 0.0 -0.0 0.02
474142.0 -0.0 0.0 -0.0
474157.0 -0.0 0.0 0.01
474171.0 -0.01 0.0 -0.0
474186.0 0.01 0.0 0.02
474200.0 -0.0 0.0 0.01
474214.0 -0.0 0.0 0.01
474229.0 0.0 -0.0 0.01
474244.0 -0.01 0.01 0.0
474258.0 -0.01 0.01 0.02
474273.0 0.0 0.01 0.02
474287.0 -0.0 0.01 0.02
474302.0 0.0 0.01 0.01
474316.0 -0.0 0.01 0.02
474331.0 0.0 0.01 -0.0
474346.0 0.01 0.01 0.01
474361.0 -0.0 0.01 0.0
474376.0 0.0 -0.0 0.01
474391.0 -0.01 0.01 0.0
474406.0 -0.0 0.01 0.01
474421.0 0.0 0.01 0.01
474436.0 -0.0 0.01 0.02
474451.0 -0.01 0.0 0.01
474466.0 -0.0 0.01 0.01
474481.0 -0.01 0.01 0.0
474495.0 0.0 0.0 0.02
474510.0 0.01 0.01 0.02
474525.0 -0.01 0.01 0.0
474540.0 -0.0 0.0 0.0
474555.0 -0.0 -0.0 0.0
474570.0 -0.0 0.01 0.01
474585.0 -0.0 0.01 0.01
474600.0 -0.01 0.01 0.0
474615.0 -0.01 0.0 -0.0
474630.0 0.0 0.01 0.02
474645.0 -0.01 0.01 0.01
474660.0 0.0 0.0 0.01
474675.0 -0.0 -0.0 -0.01
474690.0 0.01 0.0 0.01
474705.0 0.01 0.01 0.01
474720.0 -0.0 0.01 0.02
474735.0 0.0 0.01 0.0
474750.0 -0.0 0.01 -0.0
474765.0 0.0 0.01 0.01
474780.0 -0.01 0.01 0.0
474795.0 0.0 0.01 0.01
474810.0 -0.0 0.01 0.0
474825.0 -0.01 0.02 0.0
474902.0 -0.01 0.0 0.02
474916.0 -0.0 0.0 0.01
474931.0 -0.0 0.0 0.02
474945.0 0.0 0.0 0.01
474960.0 0.0 0.01 0.01
474974.0 -0.0 -0.0 0.01
474989.0 -0.0 0.01 0.0
475003.0 -0.0 0.01 0.01
475018.0 -0.0 0.01 -0.0
475032.0 -0.0 0.01 0.02
475046.0 -0.0 0.01 0.02
475060.0 -0.01 0.0 0.01
475075.0 -0.0 0.01 0.02
475089.0 -0.0 0.0 0.01
475104.0 -0.0 0.01 0.01
475119.0 -0.0 0.01 0.01
475133.0 -0.0 0.01 0.02
475148.0 -0.0 0.0 -0.0
475162.0 0.0 0.0 0.01
475177.0 0.0 0.01 0.0
475191.0 -0.0 0.02 -0.0
475206.0 -0.0 0.0 0.02
475220.0 -0.01 -0.0 0.01
475235.0 0.0 0.0 0.01
475249.0 0.0 0.01 0.01
475264.0 -0.01 -0.0 0.02
475278.0 -0.0 0.01 0.01
475293.0 -0.0 0.01 0.01
475307.0 0.0 0.01 0.01
475322.0 -0.01 0.01 0.02
475336.0 -0.0 0.0 0.02
475351.0 -0.0 0.01 0.01
475366.0 -0.0 0.01 0.01
475381.0 -0.01 0.0 0.01
475395.0 -0.0 -0.0 0.01
475410.0 0.0 0.01 0.01
475425.0 -0.0 -0.0 0.02
475440.0 -0.0 -0.01 0.02
475455.0 -0.0 0.01 -0.0
475469.0 -0.0 0.01 0.01
475484.0 -0.0 -0.0 0.0
475499.0 0.0 0.02 0.02
475514.0 -0.01 0.01 0.01
475529.0 -0.0 0.0 0.0
475544.0 0.0 0.0 0.01
475559.0 -0.0 0.0 0.02
475574.0 -0.01 0.01 0.01
475590.0 0.0 0.01 0.0
475605.0 0.0 0.0 0.0
475620.0 -0.01 0.01 0.01
475635.0 0.0 0.01 0.02
475650.0 -0.01 0.0 0.02
475665.0 0.0 0.01 0.01
475679.0 -0.01 0.01 0.02
475694.0 -0.01 0.01 0.01
475709.0 -0.01 0.0 0.0
475724.0 -0.01 0.0 0.02
475739.0 -0.0 0.01 0.01
475754.0 -0.0 0.0 0.01
475769.0 -0.01 0.0 -0.0
475784.0 0.0 0.01 0.01
475799.0 0.01 -0.01 0.01
475814.0 -0.0 0.01 0.01
475829.0 0.0 0.01 0.01
475844.0 -0.01 0.01 0.01
475859.0 -0.01 0.01 0.02
475874.0 -0.0 0.0 0.01
475889.0 -0.0 0.01 0.01
475904.0 -0.0 0.01 0.0
475918.0 -0.01 0.0 0.03
475933.0 -0.0 0.01 0.01
475948.0 -0.0 0.01 0.01
475963.0 -0.01 0.0 0.02
475978.0 -0.0 0.0 0.01
475993.0 0.0 0.01 0.01
476008.0 -0.0 0.01 -0.0
476023.0 -0.01 -0.0 0.01
476037.0 -0.01 0.01 -0.0
476053.0 0.0 0.01 0.0
476068.0 -0.0 0.0 -0.0
476083.0 -0.01 0.01 0.01
476098.0 0.0 0.01 0.01
476113.0 -0.0 0.0 0.0
476128.0 -0.0 0.0 0.01
476143.0 -0.0 -0.0 0.02
476158.0 -0.0 0.0 0.02
476173.0 0.0 0.0 0.01
476188.0 -0.01 -0.0 0.01
476203.0 -0.01 0.01 0.01
476218.0 -0.0 0.01 0.01
476233.0 -0.01 0.0 0.0
476248.0 -0.0 0.01 0.0
476263.0 -0.01 0.01 0.0
476278.0 0.0 0.0 0.02
476293.0 -0.0 0.01 0.01
476308.0 0.0 0.01 0.01
476323.0 -0.0 0.0 0.0
476338.0 -0.0 0.01 0.0
476353.0 0.0 0.01 0.01
476368.0 -0.0 0.02 0.01
476383.0 0.0 0.0 0.01
476398.0 -0.01 0.01 -0.0
476413.0 -0.0 0.01 0.0
476428.0 -0.01 0.01 -0.0
476443.0 -0.0 0.0 0.01
476458.0 0.0 0.01 0.01
476474.0 -0.0 0.0 0.0
476489.0 -0.0 0.01 0.0
476504.0 -0.0 0.0 0.01
476519.0 -0.01 -0.0 0.01
476534.0 0.0 0.0 0.01
476549.0 -0.01 0.0 -0.01
476564.0 0.01 -0.0 0.02
476579.0 0.0 0.01 0.0
476594.0 -0.0 0.01 0.01
476609.0 0.01 0.01 -0.0
476624.0 -0.0 0.0 0.01
476639.0 -0.0 0.01 0.01
476654.0 -0.01 0.01 0.01
476669.0 0.0 0.01 0.0
476684.0 -0.01 0.01 -0.01
476699.0 -0.0 0.01 0.01
476714.0 -0.0 0.01 -0.02
476729.0 -0.01 0.0 0.01
476744.0 0.0 0.01 0.01
476759.0 -0.01 0.01 -0.01
476774.0 -0.0 -0.01 0.0
476789.0 -0.0 0.0 0.02
476804.0 -0.01 -0.0 0.01
476819.0 -0.01 0.01 -0.0
476834.0 -0.0 0.0 0.0
476849.0 -0.0 0.01 0.02
476864.0 0.0 0.0 0.01
476879.0 -0.0 0.01 -0.01
476894.0 0.0 0.01 0.02
476910.0 -0.0 0.01 -0.0
476925.0 -0.0 -0.0 0.0
476940.0 0.01 0.01 -0.0
476955.0 -0.01 0.01 0.02
476970.0 -0.0 0.01 0.01
476985.0 0.0 0.0 0.02
476999.0 0.0 0.01 0.02
477014.0 -0.01 0.01 0.02
477029.0 -0.0 0.0 0.01
477044.0 -0.01 0.01 0.01
477059.0 -0.01 0.01 -0.0
477074.0 -0.01 0.0 0.01
477090.0 -0.0 0.01 0.0
477105.0 -0.01 0.01 0.0
477120.0 0.01 -0.0 0.01
477135.0 -0.0 0.0 0.01
477150.0 0.01 0.01 0.01
477165.0 -0.0 0.0 0.0
477180.0 -0.0 0.01 0.01
477195.0 -0.01 0.01 0.02
477210.0 0.01 0.0 0.0
477225.0 -0.0 0.01 0.01
477240.0 0.0 0.01 -0.0
477255.0 0.0 0.01 0.0
477270.0 -0.0 0.01 0.73
477286.0 -0.01 0.0 0.0
477300.0 0.0 0.01 0.73
477316.0 -0.0 0.01 0.01
477331.0 -0.0 0.01 2.39
477346.0 0.0 0.01 0.0
477361.0 0.21 -0.54 -0.06
477377.0 -0.01 0.01 -0.01
477454.0 0.0 0.01 0.0
477468.0 -0.0 0.0 0.01
477483.0 -0.01 0.01 0.01
477497.0 -0.0 0.01 0.01
477512.0 -0.0 0.0 0.01
477526.0 -0.0 0.01 0.02
477541.0 -0.0 -0.0 0.01
477555.0 0.0 0.01 0.01
477570.0 -0.01 0.01 0.01
477584.0 -0.01 0.0 0.02
477599.0 -0.0 0.01 0.01
477613.0 -0.0 0.0 0.01
477628.0 -0.01 0.0 0.0
477642.0 -0.0 0.01 0.02
477657.0 -0.0 0.01 0.01
477671.0 -0.0 0.0 0.01
477686.0 0.0 0.0 0.01
477701.0 -0.01 0.01 0.01
477715.0 0.0 -0.0 0.02
477730.0 -0.01 0.01 0.01
477744.0 0.0 0.0 0.01
477759.0 -0.01 0.01 0.02
477773.0 -0.0 0.01 -0.01
477788.0 -0.01 0.0 -0.0
477802.0 0.0 0.01 0.01
477817.0 0.0 0.0 0.01
477831.0 0.0 0.01 -0.01
477846.0 0.0 0.01 0.0
477860.0 0.0 0.01 -0.01
477875.0 0.0 0.0 0.0
477890.0 0.0 0.01 0.01
477904.0 -0.01 0.01 -0.0
477918.0 -0.0 0.01 0.02
477933.0 0.0 0.01 0.01
477948.0 -0.01 0.01 0.01
477962.0 -0.01 0.0 0.01
477977.0 -0.01 0.0 -0.01
477992.0 -0.0 0.01 0.02
478007.0 -0.0 0.01 0.01
478022.0 -0.0 0.01 0.0
478037.0 -0.01 0.01 0.01
478052.0 0.0 -0.0 0.01
478067.0 -0.01 -0.0 0.02
478082.0 -0.01 0.01 0.01
478097.0 0.0 0.01 0.0
478112.0 0.0 0.01 -0.0
478127.0 -0.01 0.01 0.01
478142.0 -0.01 0.0 0.02
478157.0 -0.0 0.0 0.01
478172.0 -0.0 0.01 0.01
478187.0 -0.0 0.01 0.01
478202.0 -0.0 0.0 0.02
478217.0 0.0 -0.0 0.02
478232.0 -0.0 0.01 0.02
478247.0 0.0 0.0 0.01
478262.0 -0.01 0.0 0.01
478277.0 0.01 0.01 0.01
478292.0 -0.0 0.0 0.01
478307.0 0.0 0.01 0.0
478322.0 -0.01 0.01 0.0
478337.0 -0.01 0.01 0.01
478352.0 -0.0 0.01 0.01
478367.0 -0.0 0.0 0.01
478382.0 0.0 0.01 0.0
478397.0 -0.0 0.0 0.01
478412.0 -0.0 -0.01 0.01
478427.0 0.0 0.0 0.01
478442.0 0.07 1.03 0.76
478457.0 -0.0 0.0 0.01
478472.0 -0.0 0.55 -0.77
478487.0 -0.0 0.01 0.01
478502.0 0.21 0.13 -0.06
478518.0 -0.0 0.01 -0.01
478596.0 0.0 0.02 0.02
478610.0 0.01 0.02 0.0
478625.0 0.0 0.01 -0.01
478639.0 0.01 0.01 0.0
478654.0 -0.01 0.01 0.01
478668.0 0.0 0.01 0.01
478683.0 -0.0 0.0 0.01
478697.0 -0.0 0.01 -0.01
478712.0 0.0 0.01 0.02
478726.0 -0.01 0.0 0.01
478741.0 0.0 0.01 0.02
478755.0 -0.0 0.01 0.02
478770.0 -0.0 0.0 0.01
478785.0 -0.01 0.0 0.01
478799.0 -0.01 0.0 0.0
478814.0 -0.01 0.01 0.01
478829.0 0.01 0.01 0.02
478843.0 -0.0 -0.01 0.01
478858.0 -0.0 0.01 0.01
478872.0 -0.01 0.01 -0.01
478887.0 0.0 0.01 0.01
478901.0 -0.01 0.01 0.01
478916.0 -0.01 0.0 0.01
478930.0 -0.01 0.01 0.01
478945.0 0.0 0.01 0.0
478959.0 -0.01 0.0 -0.0
478974.0 0.0 0.01 0.02
478988.0 0.0 0.01 0.0
479003.0 -0.0 0.02 0.0
479017.0 -0.0 0.01 0.0
479032.0 -0.0 0.01 0.02
479046.0 -0.01 -0.0 0.0
479061.0 -0.0 0.01 -0.01
479075.0 -0.01 0.01 0.0
479090.0 0.0 0.0 0.01
479104.0 0.0 0.01 0.01
479119.0 -0.0 0.01 -0.01
479134.0 -0.0 0.01 0.01
479149.0 -0.0 0.01 0.01
479164.0 -0.0 0.01 0.01
479179.0 0.0 -0.0 0.01
479194.0 -0.0 0.0 0.01
479209.0 -0.0 0.01 -0.0
479224.0 -0.0 0.01 0.01
479239.0 -0.0 -0.0 0.01
479255.0 0.0 0.01 0.01
479270.0 -0.01 0.01 0.01
479284.0 0.01 -0.0 0.0
479299.0 -0.0 0.01 -0.0
479314.0 0.0 0.01 0.01
479329.0 -0.01 0.01 0.0
479344.0 -0.0 0.01 0.01
479359.0 0.0 0.0 -0.0
479374.0 -0.01 0.01 0.01
479389.0 -0.0 0.01 0.02
479404.0 0.01 0.01 0.02
479419.0 0.0 0.01 0.01
479434.0 0.01 0.01 0.0
479449.0 -0.0 0.01 -0.01
479464.0 -0.01 0.01 -0.01
479479.0 -0.01 0.01 0.01
479494.0 -0.0 0.01 -0.0
479509.0 0.0 0.01 0.01
479523.0 -0.0 0.0 0.02
479538.0 -0.0 0.01 0.0
479553.0 0.0 0.01 0.0
479568.0 0.0 0.01 0.0
479583.0 0.21 0.17 -0.06
479599.0 -0.0 0.0 -0.0
479677.0 0.0 0.0 0.0
479691.0 0.0 0.02 0.01
479706.0 -0.0 0.01 -0.0
479720.0 0.0 0.0 -0.01
479735.0 0.0 0.0 -0.01
479749.0 -0.01 0.01 0.01
479763.0 -0.0 0.01 0.02
479778.0 -0.0 0.0 0.0
479792.0 -0.0 0.0 0.0
479807.0 -0.01 0.01 0.0
479821.0 -0.01 0.0 0.02
479836.0 -0.01 -0.0 0.01
479851.0 -0.0 0.01 0.02
479865.0 0.0 0.01 -0.0
479880.0 -0.01 0.0 0.02
479894.0 -0.0 0.0 0.01
479909.0 -0.01 0.01 0.01
479923.0 -0.01 0.0 0.02
479938.0 -0.01 0.01 0.01
479952.0 0.0 0.01 0.01
479967.0 0.01 0.0 0.01
479981.0 -0.01 0.01 0.01
479996.0 -0.01 0.01 0.0
480010.0 0.0 0.01 0.01
480025.0 0.01 0.01 -0.01
480039.0 -0.0 0.01 0.01
480054.0 -0.01 -0.0 0.0
480068.0 -0.0 0.0 -0.02
480083.0 -0.01 -0.0 0.02
480098.0 0.0 0.01 0.0
480112.0 -0.0 0.01 0.01
480127.0 -0.01 0.01 0.01
480141.0 0.0 0.01 -0.0
480156.0 0.01 0.0 0.0
480170.0 -0.01 0.01 0.01
480185.0 -0.01 0.01 0.02
480200.0 -0.0 0.0 -0.0
480215.0 0.01 0.0 0.02
480230.0 -0.01 0.01 0.01
480245.0 0.0 0.0 0.02
480260.0 -0.0 0.01 0.01
480275.0 0.0 -0.0 0.01
480290.0 0.0 0.01 0.01
480305.0 0.01 0.01 -0.0
480320.0 -0.0 0.01 0.01
480335.0 -0.0 0.01 -0.01
480350.0 -0.0 0.01 0.0
480365.0 -0.0 -0.0 0.02
480380.0 0.0 0.01 0.0
480395.0 0.0 0.01 0.0
480410.0 0.0 0.01 -0.01
480425.0 -0.0 0.0 0.02
480440.0 0.01 0.01 0.01
480455.0 -0.01 0.01 -0.01
480470.0 0.0 0.01 0.01
480485.0 -0.01 0.0 0.01
480500.0 -0.01 0.01 0.01
480515.0 -0.0 0.01 0.01
480530.0 -0.01 0.01 0.02
480545.0 -0.01 0.01 0.01
480560.0 -0.01 0.01 0.0
480575.0 -0.01 0.01 -0.02
480590.0 0.0 0.01 0.0
480605.0 -0.0 0.01 0.01
480620.0 -0.01 0.0 0.01
480635.0 -0.01 0.01 -0.0
480650.0 0.0 0.0 -0.01
480728.0 -0.01 0.01 0.0
480742.0 -0.01 0.0 0.01
480757.0 0.0 0.01 0.01